<?xml version='1.0' encoding='UTF-8'?>
<glyph name="c" format="2">
  <advance width="419.0"/>
  <unicode hex="0063"/>
  <outline>
    <contour>
      <point x="258" y="495" type="curve" smooth="yes"/>
      <point x="110" y="495"/>
      <point x="40" y="377"/>
      <point x="40" y="234" type="curve" smooth="yes"/>
      <point x="40" y="85"/>
      <point x="124" y="-8"/>
      <point x="262" y="-8" type="curve" smooth="yes"/>
      <point x="318" y="-8"/>
      <point x="357" y="3"/>
      <point x="387" y="18" type="curve"/>
      <point x="387" y="79" type="line"/>
      <point x="360" y="64"/>
      <point x="328" y="53"/>
      <point x="274" y="53" type="curve" smooth="yes"/>
      <point x="174" y="53"/>
      <point x="116" y="113"/>
      <point x="116" y="234" type="curve" smooth="yes"/>
      <point x="116" y="357"/>
      <point x="157" y="434"/>
      <point x="266" y="434" type="curve" smooth="yes"/>
      <point x="314" y="434"/>
      <point x="350" y="423"/>
      <point x="377" y="409" type="curve"/>
      <point x="377" y="470" type="line"/>
      <point x="353" y="483"/>
      <point x="318" y="495"/>
    </contour>
  </outline>
</glyph>
