<?xml version='1.0' encoding='UTF-8'?>
<glyph name="G" format="2">
  <advance width="610.0"/>
  <unicode hex="0047"/>
  <outline>
    <contour>
      <point x="354" y="631" type="curve" smooth="yes"/>
      <point x="151" y="631"/>
      <point x="55" y="485"/>
      <point x="55" y="303" type="curve" smooth="yes"/>
      <point x="55" y="104"/>
      <point x="169" y="-8"/>
      <point x="349" y="-8" type="curve" smooth="yes"/>
      <point x="441" y="-8"/>
      <point x="490" y="11"/>
      <point x="532" y="27" type="curve"/>
      <point x="532" y="314" type="line"/>
      <point x="347" y="314" type="line"/>
      <point x="347" y="254" type="line"/>
      <point x="460" y="254" type="line"/>
      <point x="460" y="74" type="line"/>
      <point x="431" y="64"/>
      <point x="404" y="57"/>
      <point x="359" y="57" type="curve" smooth="yes"/>
      <point x="223" y="57"/>
      <point x="138" y="140"/>
      <point x="138" y="303" type="curve" smooth="yes"/>
      <point x="138" y="459"/>
      <point x="205" y="567"/>
      <point x="359" y="567" type="curve" smooth="yes"/>
      <point x="418" y="567"/>
      <point x="467" y="551"/>
      <point x="501" y="532" type="curve"/>
      <point x="501" y="600" type="line"/>
      <point x="471" y="614"/>
      <point x="432" y="631"/>
    </contour>
  </outline>
</glyph>
