<?xml version='1.0' encoding='UTF-8'?>
<glyph name="quotesingle" format="2">
  <advance width="187.0"/>
  <unicode hex="0027"/>
  <outline>
    <contour>
      <point x="46" y="680" type="line"/>
      <point x="64" y="458" type="line"/>
      <point x="123" y="458" type="line"/>
      <point x="141" y="680" type="line"/>
    </contour>
  </outline>
</glyph>
