<?xml version='1.0' encoding='UTF-8'?>
<glyph name="two" format="2">
  <advance width="457.0"/>
  <unicode hex="0032"/>
  <outline>
    <contour>
      <point x="207" y="495" type="curve" smooth="yes"/>
      <point x="149" y="495"/>
      <point x="90" y="475"/>
      <point x="60" y="459" type="curve"/>
      <point x="60" y="397" type="line"/>
      <point x="87" y="413"/>
      <point x="143" y="434"/>
      <point x="194" y="434" type="curve" smooth="yes"/>
      <point x="275" y="434"/>
      <point x="306" y="393"/>
      <point x="306" y="339" type="curve" smooth="yes"/>
      <point x="306" y="220"/>
      <point x="143" y="124"/>
      <point x="44" y="55" type="curve"/>
      <point x="44" y="0" type="line"/>
      <point x="412" y="0" type="line"/>
      <point x="412" y="59" type="line"/>
      <point x="148" y="59" type="line"/>
      <point x="250" y="126"/>
      <point x="386" y="219"/>
      <point x="386" y="342" type="curve" smooth="yes"/>
      <point x="386" y="431"/>
      <point x="325" y="495"/>
    </contour>
  </outline>
</glyph>
