<?xml version='1.0' encoding='UTF-8'?>
<glyph name="X.italic" format="2">
  <advance width="514"/>
  <unicode hex="0058"/>
  <outline>
    <contour>
      <point x="70" y="622" type="line"/>
      <point x="216" y="331" type="line"/>
      <point x="-41" y="0" type="line"/>
      <point x="39" y="0" type="line"/>
      <point x="245" y="271" type="line"/>
      <point x="380" y="0" type="line"/>
      <point x="461" y="0" type="line"/>
      <point x="299" y="325" type="line"/>
      <point x="532" y="622" type="line"/>
      <point x="452" y="622" type="line"/>
      <point x="269" y="380" type="line"/>
      <point x="152" y="622" type="line"/>
    </contour>
  </outline>
</glyph>
