<?xml version='1.0' encoding='UTF-8'?>
<glyph name="l" format="2">
  <advance width="228.0"/>
  <unicode hex="006C"/>
  <outline>
    <contour>
      <point x="62.05470069486246" y="746" type="line"/>
      <point x="61.05470069486246" y="168" type="line" smooth="yes"/>
      <point x="60.9301335892426" y="96.0002129508008"/>
      <point x="61.05470069486246" y="136.0"/>
      <point x="61.05470069486246" y="78.0" type="curve" smooth="yes"/>
      <point x="61.05470069486246" y="0" type="line"/>
      <point x="165.05470069486245" y="0" type="line"/>
      <point x="165.05470069486245" y="75.0" type="line" smooth="yes"/>
      <point x="165.05470069486245" y="116.00000000000611"/>
      <point x="164.91881301798776" y="133.00023673715452"/>
      <point x="165.05470069486245" y="172" type="curve" smooth="yes"/>
      <point x="167.05470069486245" y="746" type="line"/>
    </contour>
  </outline>
</glyph>
