<?xml version='1.0' encoding='UTF-8'?>
<glyph name="A" format="2">
  <advance width="730.0"/>
  <unicode hex="0041"/>
  <outline>
    <contour>
      <point x="312" y="711" type="line"/>
      <point x="31" y="0" type="line"/>
      <point x="133" y="0" type="line"/>
      <point x="195" y="168" type="line"/>
      <point x="533" y="168" type="line"/>
      <point x="595" y="0" type="line"/>
      <point x="700" y="0" type="line"/>
      <point x="418" y="711" type="line"/>
    </contour>
    <contour>
      <point x="365" y="627" type="line"/>
      <point x="503" y="251" type="line"/>
      <point x="225" y="251" type="line"/>
    </contour>
  </outline>
</glyph>
