<?xml version='1.0' encoding='UTF-8'?>
<glyph name="q" format="2">
  <advance width="661.0"/>
  <unicode hex="0071"/>
  <outline>
    <contour>
      <point x="288" y="552" type="curve" smooth="yes"/>
      <point x="134" y="552"/>
      <point x="71" y="437"/>
      <point x="71" y="266" type="curve" smooth="yes"/>
      <point x="71" y="97"/>
      <point x="135" y="-19"/>
      <point x="290" y="-19" type="curve" smooth="yes"/>
      <point x="392" y="-19"/>
      <point x="444" y="26"/>
      <point x="471" y="60" type="curve"/>
      <point x="471" y="-240" type="line"/>
      <point x="564" y="-240" type="line"/>
      <point x="564" y="414" type="line"/>
      <point x="575" y="538" type="line"/>
      <point x="494" y="538" type="line"/>
      <point x="480" y="464" type="line"/>
      <point x="461" y="488"/>
      <point x="401" y="552"/>
    </contour>
    <contour>
      <point x="312" y="472" type="curve" smooth="yes"/>
      <point x="401" y="472"/>
      <point x="450" y="416"/>
      <point x="471" y="387" type="curve"/>
      <point x="471" y="152" type="line"/>
      <point x="446" y="114"/>
      <point x="399" y="62"/>
      <point x="311" y="62" type="curve" smooth="yes"/>
      <point x="209" y="62"/>
      <point x="165" y="142"/>
      <point x="165" y="267" type="curve" smooth="yes"/>
      <point x="165" y="393"/>
      <point x="209" y="472"/>
    </contour>
  </outline>
</glyph>
