<?xml version='1.0' encoding='UTF-8'?>
<glyph name="quotedblright" format="2">
  <advance width="660.0"/>
  <unicode hex="201D"/>
  <outline>
    <contour>
      <point x="238" y="779" type="curve" smooth="yes"/>
      <point x="198" y="772"/>
      <point x="180" y="746"/>
      <point x="187" y="707" type="curve" smooth="yes"/>
      <point x="190" y="688"/>
      <point x="197" y="674"/>
      <point x="208" y="665" type="curve"/>
      <point x="197" y="606"/>
      <point x="173" y="530"/>
      <point x="168" y="517" type="curve"/>
      <point x="220" y="501" type="line"/>
      <point x="242" y="522"/>
      <point x="299" y="631"/>
      <point x="309" y="695" type="curve"/>
      <point x="312" y="704"/>
      <point x="312" y="715"/>
      <point x="310" y="728" type="curve" smooth="yes"/>
      <point x="303" y="768"/>
      <point x="277" y="786"/>
    </contour>
    <contour>
      <point x="408" y="779" type="curve" smooth="yes"/>
      <point x="368" y="772"/>
      <point x="350" y="746"/>
      <point x="357" y="707" type="curve" smooth="yes"/>
      <point x="360" y="688"/>
      <point x="367" y="674"/>
      <point x="378" y="665" type="curve"/>
      <point x="367" y="606"/>
      <point x="343" y="530"/>
      <point x="338" y="517" type="curve"/>
      <point x="390" y="501" type="line"/>
      <point x="412" y="522"/>
      <point x="469" y="631"/>
      <point x="479" y="695" type="curve"/>
      <point x="482" y="704"/>
      <point x="482" y="715"/>
      <point x="480" y="728" type="curve" smooth="yes"/>
      <point x="473" y="768"/>
      <point x="447" y="786"/>
    </contour>
  </outline>
</glyph>
