<?xml version='1.0' encoding='UTF-8'?>
<glyph name="Z.italic" format="2">
  <advance width="660.0"/>
  <outline>
    <contour>
      <point x="652" y="780" type="line"/>
      <point x="168" y="780" type="line"/>
      <point x="157" y="700" type="line"/>
      <point x="532" y="700" type="line"/>
      <point x="39" y="80" type="line"/>
      <point x="28" y="0" type="line"/>
      <point x="562" y="0" type="line"/>
      <point x="573" y="80" type="line"/>
      <point x="149" y="80" type="line"/>
      <point x="641" y="700" type="line"/>
    </contour>
  </outline>
</glyph>
