<?xml version='1.0' encoding='UTF-8'?>
<glyph name="ampersand.italic" format="2">
  <advance width="777.0"/>
  <outline>
    <contour>
      <point x="410" y="663" type="curve" smooth="yes"/>
      <point x="259" y="663"/>
      <point x="191" y="590"/>
      <point x="191" y="496" type="curve" smooth="yes"/>
      <point x="191" y="464"/>
      <point x="196" y="439"/>
      <point x="211" y="403" type="curve"/>
      <point x="213" y="399"/>
      <point x="215" y="393"/>
      <point x="215" y="390" type="curve" smooth="yes"/>
      <point x="215" y="384"/>
      <point x="211" y="382"/>
      <point x="203" y="380" type="curve" smooth="yes"/>
      <point x="97" y="352"/>
      <point x="16" y="293"/>
      <point x="16" y="179" type="curve" smooth="yes"/>
      <point x="16" y="54"/>
      <point x="108" y="-14"/>
      <point x="241" y="-14" type="curve" smooth="yes"/>
      <point x="307" y="-14"/>
      <point x="376" y="2"/>
      <point x="417" y="33" type="curve" smooth="yes"/>
      <point x="422" y="37"/>
      <point x="426" y="38"/>
      <point x="428" y="38" type="curve" smooth="yes"/>
      <point x="435" y="38"/>
      <point x="441" y="30"/>
      <point x="445" y="27" type="curve" smooth="yes"/>
      <point x="486" y="-7"/>
      <point x="514" y="-17"/>
      <point x="570" y="-17" type="curve" smooth="yes"/>
      <point x="642" y="-17"/>
      <point x="694" y="26"/>
      <point x="728" y="76" type="curve" smooth="yes"/>
      <point x="733" y="84"/>
      <point x="737" y="94"/>
      <point x="737" y="101" type="curve" smooth="yes"/>
      <point x="737" y="113"/>
      <point x="723" y="118"/>
      <point x="715" y="118" type="curve" smooth="yes"/>
      <point x="706" y="118"/>
      <point x="700" y="111"/>
      <point x="697" y="105" type="curve"/>
      <point x="678" y="74"/>
      <point x="664" y="68"/>
      <point x="644" y="68" type="curve" smooth="yes"/>
      <point x="623" y="68"/>
      <point x="603" y="75"/>
      <point x="563" y="115" type="curve" smooth="yes"/>
      <point x="559" y="119"/>
      <point x="558" y="123"/>
      <point x="558" y="126" type="curve" smooth="yes"/>
      <point x="558" y="129"/>
      <point x="560" y="133"/>
      <point x="566" y="140" type="curve" smooth="yes"/>
      <point x="618" y="195"/>
      <point x="668" y="271"/>
      <point x="668" y="345" type="curve" smooth="yes"/>
      <point x="668" y="384"/>
      <point x="646" y="405"/>
      <point x="614" y="405" type="curve" smooth="yes"/>
      <point x="573" y="405"/>
      <point x="560" y="378"/>
      <point x="560" y="357" type="curve" smooth="yes"/>
      <point x="560" y="341"/>
      <point x="564" y="329"/>
      <point x="574" y="317" type="curve" smooth="yes"/>
      <point x="581" y="308"/>
      <point x="583" y="296"/>
      <point x="583" y="287" type="curve" smooth="yes"/>
      <point x="583" y="237"/>
      <point x="559" y="204"/>
      <point x="533" y="173" type="curve"/>
      <point x="530" y="170"/>
      <point x="527" y="166"/>
      <point x="523" y="166" type="curve" smooth="yes"/>
      <point x="519" y="166"/>
      <point x="514" y="172"/>
      <point x="511" y="176" type="curve" smooth="yes"/>
      <point x="454" y="246"/>
      <point x="389" y="361"/>
      <point x="362" y="431" type="curve" smooth="yes"/>
      <point x="345" y="475"/>
      <point x="333" y="507"/>
      <point x="333" y="533" type="curve" smooth="yes"/>
      <point x="333" y="589"/>
      <point x="372" y="613"/>
      <point x="412" y="613" type="curve" smooth="yes"/>
      <point x="432" y="613"/>
      <point x="442" y="609"/>
      <point x="451" y="602" type="curve" smooth="yes"/>
      <point x="464" y="592"/>
      <point x="467" y="581"/>
      <point x="468" y="569" type="curve" smooth="yes"/>
      <point x="471" y="532"/>
      <point x="482" y="514"/>
      <point x="524" y="514" type="curve" smooth="yes"/>
      <point x="559" y="514"/>
      <point x="577" y="542"/>
      <point x="577" y="570" type="curve" smooth="yes"/>
      <point x="577" y="609"/>
      <point x="546" y="663"/>
    </contour>
    <contour>
      <point x="224" y="337" type="curve" smooth="yes"/>
      <point x="231" y="337"/>
      <point x="234" y="333"/>
      <point x="239" y="324" type="curve" smooth="yes"/>
      <point x="276" y="258"/>
      <point x="319" y="172"/>
      <point x="383" y="88" type="curve"/>
      <point x="385" y="85"/>
      <point x="386" y="83"/>
      <point x="386" y="80" type="curve" smooth="yes"/>
      <point x="386" y="74"/>
      <point x="381" y="71"/>
      <point x="376" y="69" type="curve"/>
      <point x="350" y="56"/>
      <point x="323" y="54"/>
      <point x="289" y="54" type="curve" smooth="yes"/>
      <point x="209" y="54"/>
      <point x="161" y="133"/>
      <point x="161" y="211" type="curve" smooth="yes"/>
      <point x="161" y="310"/>
      <point x="201" y="337"/>
    </contour>
  </outline>
</glyph>
