<?xml version='1.0' encoding='UTF-8'?>
<glyph name="hyphen.italic" format="2">
  <advance width="278"/>
  <unicode hex="002D"/>
  <outline>
    <contour>
      <point x="69" y="305" type="line" smooth="yes"/>
      <point x="61" y="305"/>
      <point x="50" y="301"/>
      <point x="44" y="287" type="curve" smooth="yes"/>
      <point x="36" y="270"/>
      <point x="30" y="244"/>
      <point x="30" y="228" type="curve" smooth="yes"/>
      <point x="30" y="213"/>
      <point x="37" y="207"/>
      <point x="51" y="207" type="curve" smooth="yes"/>
      <point x="225" y="207" type="line" smooth="yes"/>
      <point x="240" y="207"/>
      <point x="246" y="212"/>
      <point x="253" y="229" type="curve" smooth="yes"/>
      <point x="259" y="243"/>
      <point x="265" y="274"/>
      <point x="265" y="284" type="curve" smooth="yes"/>
      <point x="265" y="296"/>
      <point x="258" y="305"/>
      <point x="242" y="305" type="curve" smooth="yes"/>
    </contour>
  </outline>
</glyph>
