<?xml version='1.0' encoding='UTF-8'?>
<glyph name="one.italic" format="2">
  <advance width="588"/>
  <unicode hex="0031"/>
  <outline>
    <contour>
      <point x="450" y="641" type="curve" smooth="yes"/>
      <point x="444" y="641"/>
      <point x="435" y="638"/>
      <point x="426" y="634" type="curve" smooth="yes"/>
      <point x="396" y="620"/>
      <point x="277" y="572"/>
      <point x="231" y="561" type="curve" smooth="yes"/>
      <point x="214" y="557"/>
      <point x="204" y="548"/>
      <point x="204" y="532" type="curve" smooth="yes"/>
      <point x="204" y="516"/>
      <point x="212" y="511"/>
      <point x="221" y="511" type="curve" smooth="yes"/>
      <point x="227" y="511"/>
      <point x="250" y="514"/>
      <point x="268" y="514" type="curve" smooth="yes"/>
      <point x="284" y="514"/>
      <point x="295" y="506"/>
      <point x="295" y="494" type="curve" smooth="yes"/>
      <point x="295" y="478"/>
      <point x="288" y="446"/>
      <point x="279" y="406" type="curve" smooth="yes"/>
      <point x="219" y="145" type="line" smooth="yes"/>
      <point x="210" y="107"/>
      <point x="202" y="80"/>
      <point x="192" y="67" type="curve" smooth="yes"/>
      <point x="183" y="56"/>
      <point x="166" y="49"/>
      <point x="143" y="49" type="curve" smooth="yes"/>
      <point x="138" y="49"/>
      <point x="125" y="50"/>
      <point x="121" y="50" type="curve" smooth="yes"/>
      <point x="103" y="50"/>
      <point x="96" y="33"/>
      <point x="96" y="18" type="curve" smooth="yes"/>
      <point x="96" y="8"/>
      <point x="102" y="-1"/>
      <point x="114" y="-1" type="curve" smooth="yes"/>
      <point x="124" y="-1"/>
      <point x="204" y="5"/>
      <point x="261" y="5" type="curve" smooth="yes"/>
      <point x="321" y="5"/>
      <point x="393" y="-1"/>
      <point x="404" y="-1" type="curve" smooth="yes"/>
      <point x="426" y="-1"/>
      <point x="432" y="16"/>
      <point x="432" y="32" type="curve" smooth="yes"/>
      <point x="432" y="41"/>
      <point x="428" y="50"/>
      <point x="414" y="50" type="curve" smooth="yes"/>
      <point x="406" y="50"/>
      <point x="395" y="49"/>
      <point x="390" y="49" type="curve" smooth="yes"/>
      <point x="360" y="49"/>
      <point x="345" y="57"/>
      <point x="345" y="80" type="curve" smooth="yes"/>
      <point x="345" y="94"/>
      <point x="348" y="120"/>
      <point x="354" y="147" type="curve" smooth="yes"/>
      <point x="423" y="443" type="line" smooth="yes"/>
      <point x="435" y="496"/>
      <point x="445" y="535"/>
      <point x="459" y="586" type="curve" smooth="yes"/>
      <point x="463" y="602"/>
      <point x="468" y="618"/>
      <point x="468" y="623" type="curve" smooth="yes"/>
      <point x="468" y="637"/>
      <point x="462" y="641"/>
    </contour>
  </outline>
</glyph>
