<?xml version='1.0' encoding='UTF-8'?>
<glyph name="four.italic" format="2">
  <advance width="565"/>
  <unicode hex="0034"/>
  <outline>
    <contour>
      <point x="348" y="491" type="line"/>
      <point x="-4" y="93" type="line"/>
      <point x="-19" y="0" type="line"/>
      <point x="274" y="0" type="line"/>
      <point x="251" y="-141" type="line"/>
      <point x="382" y="-141" type="line"/>
      <point x="404" y="0" type="line"/>
      <point x="501" y="0" type="line"/>
      <point x="517" y="98" type="line"/>
      <point x="419" y="98" type="line"/>
      <point x="481" y="491" type="line"/>
    </contour>
    <contour>
      <point x="324" y="335" type="line"/>
      <point x="327" y="335" type="line"/>
      <point x="289" y="98" type="line"/>
      <point x="123" y="98" type="line"/>
    </contour>
  </outline>
</glyph>
