<?xml version='1.0' encoding='UTF-8'?>
<glyph name="m.italic" format="2">
  <advance width="790"/>
  <unicode hex="006D"/>
  <outline>
    <contour>
      <point x="90" y="491" type="line"/>
      <point x="12" y="0" type="line"/>
      <point x="141" y="0" type="line"/>
      <point x="195" y="337" type="line"/>
      <point x="216" y="358"/>
      <point x="251" y="394"/>
      <point x="291" y="394" type="curve" smooth="yes"/>
      <point x="319" y="394"/>
      <point x="330" y="378"/>
      <point x="330" y="349" type="curve" smooth="yes"/>
      <point x="330" y="337"/>
      <point x="328" y="324"/>
      <point x="325" y="306" type="curve" smooth="yes"/>
      <point x="275" y="0" type="line"/>
      <point x="404" y="0" type="line"/>
      <point x="455" y="308" type="line" smooth="yes"/>
      <point x="457" y="318"/>
      <point x="458" y="330"/>
      <point x="459" y="340" type="curve"/>
      <point x="485" y="363"/>
      <point x="519" y="394"/>
      <point x="556" y="394" type="curve" smooth="yes"/>
      <point x="584" y="394"/>
      <point x="595" y="378"/>
      <point x="595" y="349" type="curve" smooth="yes"/>
      <point x="595" y="337"/>
      <point x="593" y="323"/>
      <point x="590" y="306" type="curve" smooth="yes"/>
      <point x="559" y="118" type="line"/>
      <point x="558" y="109"/>
      <point x="557" y="98"/>
      <point x="557" y="89" type="curve" smooth="yes"/>
      <point x="557" y="32"/>
      <point x="587" y="-7"/>
      <point x="657" y="-7" type="curve" smooth="yes"/>
      <point x="685" y="-7"/>
      <point x="711" y="-2"/>
      <point x="730" y="5" type="curve"/>
      <point x="744" y="93" type="line"/>
      <point x="735" y="92"/>
      <point x="728" y="91"/>
      <point x="721" y="91" type="curve" smooth="yes"/>
      <point x="700" y="91"/>
      <point x="691" y="98"/>
      <point x="691" y="121" type="curve" smooth="yes"/>
      <point x="691" y="127"/>
      <point x="692" y="135"/>
      <point x="693" y="144" type="curve"/>
      <point x="723" y="326" type="line" smooth="yes"/>
      <point x="726" y="344"/>
      <point x="727" y="361"/>
      <point x="727" y="377" type="curve" smooth="yes"/>
      <point x="727" y="448"/>
      <point x="698" y="499"/>
      <point x="620" y="499" type="curve" smooth="yes"/>
      <point x="555" y="499"/>
      <point x="504" y="467"/>
      <point x="458" y="422" type="curve"/>
      <point x="446" y="469"/>
      <point x="414" y="499"/>
      <point x="354" y="499" type="curve" smooth="yes"/>
      <point x="281" y="499"/>
      <point x="240" y="460"/>
      <point x="208" y="427" type="curve"/>
      <point x="219" y="491" type="line"/>
    </contour>
  </outline>
</glyph>
