<?xml version='1.0' encoding='UTF-8'?>
<glyph name="period" format="2">
  <advance width="265.0"/>
  <unicode hex="002E"/>
  <outline>
    <contour>
      <point x="132" y="151" type="curve" smooth="yes"/>
      <point x="84" y="151"/>
      <point x="49" y="116"/>
      <point x="49" y="72" type="curve" smooth="yes"/>
      <point x="49" y="28"/>
      <point x="84" y="-9"/>
      <point x="132" y="-9" type="curve" smooth="yes"/>
      <point x="180" y="-9"/>
      <point x="215" y="28"/>
      <point x="215" y="72" type="curve" smooth="yes"/>
      <point x="215" y="116"/>
      <point x="180" y="151"/>
    </contour>
  </outline>
</glyph>
