<?xml version='1.0' encoding='UTF-8'?>
<glyph name="R.italic" format="2">
  <advance width="582"/>
  <unicode hex="0052"/>
  <outline>
    <contour>
      <point x="128" y="623" type="line"/>
      <point x="29" y="0" type="line"/>
      <point x="163" y="0" type="line"/>
      <point x="203" y="249" type="line"/>
      <point x="264" y="249" type="line"/>
      <point x="347" y="79" type="line" smooth="yes"/>
      <point x="378" y="16"/>
      <point x="415" y="-8"/>
      <point x="477" y="-8" type="curve" smooth="yes"/>
      <point x="494" y="-8"/>
      <point x="507" y="-5"/>
      <point x="523" y="-1" type="curve"/>
      <point x="538" y="98" type="line"/>
      <point x="530" y="97"/>
      <point x="523" y="96"/>
      <point x="516" y="96" type="curve" smooth="yes"/>
      <point x="493" y="96"/>
      <point x="479" y="105"/>
      <point x="465" y="132" type="curve" smooth="yes"/>
      <point x="395" y="268" type="line"/>
      <point x="489" y="293"/>
      <point x="538" y="360"/>
      <point x="538" y="447" type="curve" smooth="yes"/>
      <point x="538" y="547"/>
      <point x="472" y="623"/>
      <point x="344" y="623" type="curve" smooth="yes"/>
    </contour>
    <contour>
      <point x="245" y="517" type="line"/>
      <point x="314" y="517" type="line" smooth="yes"/>
      <point x="377" y="517"/>
      <point x="402" y="488"/>
      <point x="402" y="441" type="curve" smooth="yes"/>
      <point x="402" y="377"/>
      <point x="366" y="341"/>
      <point x="294" y="341" type="curve" smooth="yes"/>
      <point x="217" y="341" type="line"/>
    </contour>
  </outline>
</glyph>
