<?xml version='1.0' encoding='UTF-8'?>
<glyph name="j" format="2">
  <advance width="283.0"/>
  <unicode hex="006A"/>
  <outline>
    <contour>
      <point x="111" y="760" type="line"/>
      <point x="111" y="644" type="line"/>
      <point x="182" y="644" type="line"/>
      <point x="182" y="760" type="line"/>
    </contour>
    <contour>
      <point x="111" y="535" type="line"/>
      <point x="111" y="44" type="line" smooth="yes"/>
      <point x="111" y="-68"/>
      <point x="111" y="-115"/>
      <point x="-12" y="-115" type="curve"/>
      <point x="-12" y="-183" type="line"/>
      <point x="177" y="-183"/>
      <point x="181" y="-103"/>
      <point x="181" y="44" type="curve" smooth="yes"/>
      <point x="181" y="535" type="line"/>
    </contour>
  </outline>
</glyph>
