<?xml version='1.0' encoding='UTF-8'?>
<glyph name="five" format="2">
  <advance width="544.0"/>
  <unicode hex="0035"/>
  <outline>
    <contour>
      <point x="177" y="622" type="curve" smooth="yes"/>
      <point x="165" y="622"/>
      <point x="163" y="614"/>
      <point x="161" y="603" type="curve" smooth="yes"/>
      <point x="145" y="506"/>
      <point x="123" y="387"/>
      <point x="123" y="374" type="curve" smooth="yes"/>
      <point x="123" y="352"/>
      <point x="139" y="346"/>
      <point x="153" y="345" type="curve" smooth="yes"/>
      <point x="271" y="336"/>
      <point x="372" y="305"/>
      <point x="372" y="195" type="curve" smooth="yes"/>
      <point x="372" y="94"/>
      <point x="301" y="30"/>
      <point x="181" y="30" type="curve" smooth="yes"/>
      <point x="165" y="30"/>
      <point x="144" y="35"/>
      <point x="134" y="38" type="curve" smooth="yes"/>
      <point x="121" y="42"/>
      <point x="111" y="51"/>
      <point x="99" y="51" type="curve" smooth="yes"/>
      <point x="80" y="51"/>
      <point x="68" y="33"/>
      <point x="68" y="15" type="curve" smooth="yes"/>
      <point x="68" y="-10"/>
      <point x="93" y="-25"/>
      <point x="136" y="-25" type="curve" smooth="yes"/>
      <point x="320" y="-25"/>
      <point x="458" y="83"/>
      <point x="458" y="216" type="curve" smooth="yes"/>
      <point x="458" y="337"/>
      <point x="383" y="398"/>
      <point x="186" y="417" type="curve"/>
      <point x="180" y="418"/>
      <point x="170" y="420"/>
      <point x="170" y="431" type="curve" smooth="yes"/>
      <point x="170" y="437"/>
      <point x="173" y="470"/>
      <point x="186" y="530" type="curve" smooth="yes"/>
      <point x="189" y="542"/>
      <point x="191" y="548"/>
      <point x="203" y="549" type="curve" smooth="yes"/>
      <point x="226" y="550"/>
      <point x="248" y="550"/>
      <point x="272" y="550" type="curve" smooth="yes"/>
      <point x="332" y="550"/>
      <point x="418" y="549"/>
      <point x="427" y="549" type="curve" smooth="yes"/>
      <point x="430" y="549"/>
      <point x="436" y="551"/>
      <point x="440" y="563" type="curve"/>
      <point x="445" y="581"/>
      <point x="450" y="612"/>
      <point x="450" y="618" type="curve" smooth="yes"/>
      <point x="450" y="623"/>
      <point x="445" y="625"/>
      <point x="438" y="625" type="curve" smooth="yes"/>
      <point x="433" y="625"/>
      <point x="376" y="621"/>
      <point x="268" y="621" type="curve" smooth="yes"/>
      <point x="225" y="621"/>
      <point x="186" y="622"/>
    </contour>
  </outline>
</glyph>
