<?xml version='1.0' encoding='UTF-8'?>
<glyph name="O" format="2">
  <advance width="588.0"/>
  <unicode hex="004F"/>
  <outline>
    <contour>
      <point x="294" y="737" type="curve" smooth="yes"/>
      <point x="125" y="737"/>
      <point x="33" y="662"/>
      <point x="33" y="358" type="curve" smooth="yes"/>
      <point x="33" y="55"/>
      <point x="125" y="-20"/>
      <point x="294" y="-20" type="curve" smooth="yes"/>
      <point x="462" y="-20"/>
      <point x="555" y="55"/>
      <point x="555" y="358" type="curve" smooth="yes"/>
      <point x="555" y="662"/>
      <point x="462" y="737"/>
    </contour>
    <contour>
      <point x="294" y="583" type="curve" smooth="yes"/>
      <point x="344" y="583"/>
      <point x="374" y="553"/>
      <point x="374" y="358" type="curve" smooth="yes"/>
      <point x="374" y="164"/>
      <point x="344" y="135"/>
      <point x="294" y="135" type="curve" smooth="yes"/>
      <point x="243" y="135"/>
      <point x="213" y="164"/>
      <point x="213" y="358" type="curve" smooth="yes"/>
      <point x="213" y="553"/>
      <point x="243" y="583"/>
    </contour>
  </outline>
</glyph>
